{
    "id": "iris",
    "name": "Iris",
    "author": "IMS",
    "summary": "A modern shaders mod for Minecraft",
    "icon": "https://cdn.modrinth.com/data/YL57xq9U/dc558eece920db435f9823ce86de0c4cde89800b.png",
    "description": [
        "A modern shaders mod for Minecraft intended to be",
        "compatible with existing OptiFine shader packs."
    ],
    "message": [
        "At the moment, using Iris will disable the outline mode in",
        "EntityESP, StorageESP, and ItemESP due to it",
        "conflicting with Aristois own shaders.",
        "",
        "The BoundaryBoxFull and BoundaryBox modes will",
        "still work fine when using Iris."
    ],
    "website": "https://modrinth.com/mod/iris",
    "downloads": {
      "1.21.4": [
        {
          "url": "https://cdn.modrinth.com/data/YL57xq9U/versions/LZrmMq4i/iris-fabric-1.8.5%2Bmc1.21.4.jar",
          "version": "1.8.5",
          "path": {
            "type": "fabric",
            "name": "iris-%mc%.jar"
          }
        }
      ],
      "1.21.3": [
        {
          "url": "https://cdn.modrinth.com/data/YL57xq9U/versions/XExINvk9/iris-fabric-1.8.0-beta.6%2Bmc1.21.2.jar",
          "version": "1.8.0",
          "path": {
            "type": "fabric",
            "name": "iris-%mc%.jar"
          }
        }
      ],
      "1.21(.1)?": [
        {
          "url": "https://cdn.modrinth.com/data/YL57xq9U/versions/kuOV4Ece/iris-1.7.3%2Bmc1.21.jar",
          "version": "1.7.3",
          "path": {
            "type": "fabric",
            "name": "iris-%mc%.jar"
          }
        }
      ]
    },
    "version": "1",
    "conflicts": [
      "optifine"
    ],
    "depends": [
      "fabric-api",
      "sodium"
    ]
}
