{
  "id": "multiconnect",
  "name": "MultiConnect",
  "author": "EarthComputer",
  "beta": true,
  "conflicts": [
    "optifine"
  ],
  "summary": "Allows you to join any mc version using the latest version",
  "icon": "https://media.forgecdn.net/avatars/thumbnails/219/577/64/64/637016557350663676.png",
  "description": [
    "Allows you to join Minecraft 1.8 to 1.19.3 on the latest mc version",
    "MIT license, source at https://github.com/Earthcomputer/multiconnect",
    "Currently supported versions are: 1.15.2 to 1.19.3"
  ],
  "downloads": {
    "1.19.3": [
      {
        "url": "https://mediafilez.forgecdn.net/files/4162/536/multiconnect-1.6-beta.25.jar",
        "version": "1.6-beta.25",
        "path": {
          "type": "fabric",
          "name": "multiconnect.jar"
        }
      }
    ],
    "1.19.2": [
      {
        "url": "https://github.com/Earthcomputer/multiconnect/releases/download/v1.6-beta.22/multiconnect-1.6-beta.22.jar",
        "version": "1.6-beta.22",
        "path": {
          "type": "fabric",
          "name": "multiconnect.jar"
        },
        "sha1": "B33F0A69573A7CA55AB4BF60A2E018255EB20B56"
      }
    ],
    "1.19.1": [
      {
        "url": "https://mediafiles.forgecdn.net/files/3902/799/multiconnect-1.6-beta.21.jar",
        "version": "1.6-beta.21",
        "path": {
          "type": "fabric",
          "name": "multiconnect.jar"
        },
        "sha1": "6a4e3ed23c64f7a87af2add9270fe13c6aee73df"
      }
    ],
    "1.19": [
      {
        "url": "https://github.com/Earthcomputer/multiconnect/releases/download/v1.6-beta.12/multiconnect-1.6-beta.12.jar",
        "version": "1.6-beta.12",
        "path": {
          "type": "fabric",
          "name": "multiconnect.jar"
        },
        "sha1": "F0D48FC33DB18A4D953838183A97BF2C3D1EF9A7"
      }
    ],
    "1.18.1": [
      {
        "url": "https://github.com/Earthcomputer/multiconnect/releases/download/v1.5.10/multiconnect-1.5.10.jar",
        "version": "1.5.10",
        "path": {
          "type": "fabric",
          "name": "multiconnect.jar"
        },
        "sha1": "C1C35A8057B2D5D43814729769D84F71E9564019"
      }
    ],
    "1.17.1": [
      {
        "url": "https://github.com/Earthcomputer/multiconnect/releases/download/v1.4.8/multiconnect-1.4.8.jar",
        "version": "1.4.8",
        "path": {
          "type": "fabric",
          "name": "multiconnect.jar"
        }
      }
    ],
    "1.17": [
      {
        "url": "https://github.com/Earthcomputer/multiconnect/releases/download/v1.4.4/multiconnect-1.4.4.jar",
        "version": "1.4.4",
        "path": {
          "type": "fabric",
          "name": "multiconnect.jar"
        }
      }
    ],
    "1.16.5": [
      {
        "url": "https://github.com/Earthcomputer/multiconnect/releases/download/v1.3.36/multiconnect-1.3.36.jar",
        "version": "1.3.36",
        "path": {
          "type": "fabric",
          "name": "multiconnect.jar"
        }
      }
    ],
    "1.16.4": [
      {
        "url": "https://github.com/Earthcomputer/multiconnect/releases/download/v1.3.34/multiconnect-1.3.34.jar",
        "version": "1.3.34",
        "path": {
          "type": "fabric",
          "name": "multiconnect.jar"
        }
      }
    ],
    "1.16.3": [
      {
        "url": "https://github.com/Earthcomputer/multiconnect/releases/download/v1.3.32/multiconnect-1.3.32.jar",
        "version": "1.3.32",
        "path": {
          "type": "fabric",
          "name": "multiconnect.jar"
        }
      }
    ],
    "1.16.2": [
      {
        "url": "https://github.com/Earthcomputer/multiconnect/releases/download/v1.3.18/multiconnect-1.3.18.jar",
        "version": "1.3.18",
        "path": {
          "type": "fabric",
          "name": "multiconnect.jar"
        }
      }
    ],
    "1.16.1": [
      {
        "url": "https://github.com/Earthcomputer/multiconnect/releases/download/v1.3.8/multiconnect-1.3.8.jar",
        "version": "1.3.8",
        "path": {
          "type": "fabric",
          "name": "multiconnect.jar"
        }
      }
    ],
    "1.15.2": [
      {
        "url": "https://github.com/Earthcomputer/multiconnect/releases/download/v1.2.9/multiconnect-1.2.9.jar",
        "version": "1.2.9",
        "path": {
          "type": "fabric",
          "name": "multiconnect.jar"
        }
      }
    ]
  },
  "version": "1"
}
