{
  "updated": "Wed Jan 01 2025 18:19:10 GMT+0100 (Central European Standard Time)",
  "mods": [
    {
      "icon": "https://static.wikia.nocookie.net/minecraft/images/f/fe/GrassNew.png/revision/latest?cb=20190903234415",
      "id": "Baritone",
      "name": "Baritone",
      "author": "Baritone Team",
      "summary": "Google maps for Minecraft",
      "beta": true,
      "description": [
        "Automatically mine blocks, get from A to B, and much more!",
        "Source and Issue Tracker at https://github.com/cabaletta/baritone"
      ],
      "downloads": {
        "1.21.4": [
          {
            "url": "https://gitlab.com/EMC-Framework/maven/-/raw/master/marketplace/downloads/baritone-api-fabric-1.9.3-57-gb0640562.jar",
            "version": "1.9.3",
            "path": {
              "type": "fabric",
              "name": "baritone-%mc%.jar"
            }
          }
        ],
        "1.21.3": [
          {
            "url": "https://gitlab.com/EMC-Framework/maven/-/raw/master/marketplace/downloads/baritone-api-fabric-1.11.1.jar",
            "version": "1.11.1",
            "path": {
              "type": "fabric",
              "name": "baritone-%mc%.jar"
            }
          }
        ],
        "1.21.1": [
          {
            "url": "https://gitlab.com/EMC-Framework/maven/-/raw/master/marketplace/downloads/baritone-api-fabric-1.10.2-7-ga231748b.jar",
            "version": "1.10.2",
            "path": {
              "type": "fabric",
              "name": "baritone-%mc%.jar"
            }
          }
        ],
        "1.21": [
          {
            "url": "https://gitlab.com/EMC-Framework/maven/-/raw/master/marketplace/downloads/baritone-api-fabric-1.10.2-5-gab84fb74.jar",
            "version": "1.10.2",
            "path": {
              "type": "fabric",
              "name": "baritone-%mc%.jar"
            }
          }
        ],
        "1.20.6": [
          {
            "url": "https://gitlab.com/EMC-Framework/maven/-/raw/master/marketplace/downloads/baritone-api-fabric-1.10.2-3-g323e6faa.jar",
            "version": "1.10.2",
            "path": {
              "type": "fabric",
              "name": "baritone-%mc%.jar"
            }
          }
        ],
        "1.20.4": [
          {
            "url": "https://gitlab.com/EMC-Framework/maven/-/raw/master/marketplace/downloads/baritone-api-fabric-1.5.3-66-g4b6652b4.jar",
            "version": "1.5.3",
            "path": {
              "type": "fabric",
              "name": "baritone-%mc%.jar"
            }
          }
        ],
        "1.20.2": [
          {
            "url": "https://gitlab.com/EMC-Framework/maven/-/raw/master/marketplace/downloads/baritone-api-fabric-1.2.19-591-g9bf890a7.jar",
            "version": "1.2.19",
            "path": {
              "type": "fabric",
              "name": "baritone-%mc%.jar"
            }
          }
        ],
        "1.20.1": [
          {
            "url": "https://github.com/cabaletta/baritone/releases/download/v1.10.1/baritone-api-fabric-1.10.1.jar",
            "version": "1.10.1",
            "path": {
              "type": "fabric",
              "name": "baritone-%mc%.jar"
            }
          }
        ],
        "1.20": [
          {
            "url": "https://gitlab.com/EMC-Framework/maven/-/raw/master/marketplace/downloads/baritone-api-fabric-1.9.3-7-g49d7e444.jar",
            "version": "1.9.3-7",
            "path": {
              "type": "fabric",
              "name": "baritone-%mc%.jar"
            },
            "sha1": "FADC2A2E3C2D256515BFD642A84A7B9835B8B3AB"
          }
        ],
        "1.19.4": [
          {
            "url": "https://github.com/cabaletta/baritone/releases/download/v1.9.3/baritone-api-fabric-1.9.3.jar",
            "version": "1.9.3",
            "path": {
              "type": "fabric",
              "name": "baritone-%mc%.jar"
            },
            "sha1": "5F3CA6CF1DE568BE4B4C79C0816BC76AF1580812"
          }
        ],
        "1.19.3": [
          {
            "url": "https://gitlab.com/EMC-Framework/maven/-/raw/master/marketplace/downloads/baritone-fabric-api-1.8.3-226-g1d275c21.jar",
            "version": "1.8.3-226",
            "path": {
              "type": "fabric",
              "name": "baritone-%mc%.jar"
            },
            "sha1": "527D672CD2DBF0942800FE6793F28D07E501A22D"
          }
        ],
        "1.19.2": [
          {
            "url": "https://github.com/cabaletta/baritone/releases/download/v1.9.4/baritone-api-fabric-1.9.4.jar",
            "version": "1.9.4",
            "path": {
              "type": "fabric",
              "name": "baritone-%mc%.jar"
            }
          }
        ],
        "1.19.1": [
          {
            "url": "https://gitlab.com/EMC-Framework/maven/-/raw/master/marketplace/downloads/baritone-fabric-api-1.8.3-132-g076326dc.jar",
            "version": "1.8.3-132",
            "path": {
              "type": "fabric",
              "name": "baritone-%mc%.jar"
            }
          }
        ],
        "1.19": [
          {
            "url": "https://gitlab.com/EMC-Framework/maven/-/raw/master/marketplace/downloads/baritone-fabric-api-1.8.3-121-g054a5f8e.jar",
            "version": "1.8.3-121",
            "path": {
              "type": "fabric",
              "name": "baritone-%mc%.jar"
            }
          }
        ],
        "1.18.2": [
          {
            "url": "https://gitlab.com/EMC-Framework/maven/-/raw/master/marketplace/downloads/baritone-api-fabric-1.8.3.jar",
            "version": "1.8.3",
            "path": {
              "type": "fabric",
              "name": "baritone-%mc%.jar"
            }
          }
        ],
        "1.18(.1)?": [
          {
            "url": "https://gitlab.com/EMC-Framework/maven/-/raw/master/marketplace/downloads/baritone-api-fabric-1.8.0.jar",
            "version": "1.8.0",
            "path": {
              "type": "fabric",
              "name": "baritone-%mc%.jar"
            }
          }
        ],
        "1.17(.1)?": [
          {
            "url": "https://gitlab.com/EMC-Framework/maven/-/raw/master/marketplace/downloads/baritone-api-fabric-1.7.1.jar",
            "version": "1.7.1",
            "path": {
              "type": "fabric",
              "name": "baritone-%mc%.jar"
            }
          }
        ],
        "1.16.(4|5)": [
          {
            "url": "https://github.com/cabaletta/baritone/releases/download/v1.6.5/baritone-api-fabric-1.6.5.jar",
            "version": "1.6.5",
            "path": {
              "type": "fabric",
              "name": "baritone-%mc%.jar"
            }
          }
        ]
      },
      "version": "6",
      "link": "",
      "sha1": "0"
    },
    {
      "id": "CraftPresence",
      "name": "CraftPresence",
      "author": "CDAGaming",
      "beta": true,
      "summary": "Completely customize the way others see you play in Discord!",
      "icon": "https://media.forgecdn.net/avatars/thumbnails/159/374/64/64/636658415780463602.png",
      "description": [
        "Change your Discord presence with many customisation options.",
        "Optional support for Aristois as a playing status.",
        "Source at https://gitlab.com/CDAGaming/CraftPresence"
      ],
      "website": "https://modrinth.com/mod/craftpresence",
      "downloads": {
        "1.21.4": [
          {
            "url": "https://cdn.modrinth.com/data/DFqQfIBR/versions/Nlt7ZXQ1/CraftPresence-2.5.2%2B1.21.4-fabric.jar",
            "version": "2.5.2",
            "path": {
              "type": "fabric",
              "name": "CraftPresence-%mc%.jar"
            }
          },
          {
            "url": "https://cdn.modrinth.com/data/nT86WUER/versions/6WNlOaVV/UniLib-1.0.4%2B1.21.4-fabric.jar",
            "version": "1.0.4",
            "path": {
              "type": "fabric",
              "name": "unilib.jar"
            }
          }
        ],
        "1.21.3": [
          {
            "url": "https://cdn.modrinth.com/data/DFqQfIBR/versions/tcVuDcOh/CraftPresence-2.5.1%2B1.21.3-fabric.jar",
            "version": "2.5.1",
            "path": {
              "type": "fabric",
              "name": "CraftPresence-%mc%.jar"
            }
          }
        ],
        "1.21(.1)?": [
          {
            "url": "https://cdn.modrinth.com/data/DFqQfIBR/versions/BEhx5ZnQ/CraftPresence-2.4.2%2B1.21.jar",
            "version": "2.4.2",
            "path": {
              "type": "fabric",
              "name": "CraftPresence-%mc%.jar"
            }
          }
        ],
        "1.20.6": [
          {
            "url": "https://cdn.modrinth.com/data/DFqQfIBR/versions/2SLzX3NZ/CraftPresence-2.3.9%2B1.20.6.jar",
            "version": "2.3.9",
            "path": {
              "type": "fabric",
              "name": "CraftPresence-%mc%.jar"
            }
          }
        ],
        "1.20.4": [
          {
            "url": "https://cdn.modrinth.com/data/DFqQfIBR/versions/kS6vTkR2/CraftPresence-2.2.5%2B1.20.3.jar",
            "version": "2.2.5",
            "path": {
              "type": "fabric",
              "name": "CraftPresence-%mc%.jar"
            }
          }
        ],
        "1.20.2": [
          {
            "url": "https://mediafilez.forgecdn.net/files/4762/200/CraftPresence-2.2.3%2B1.20.2.jar",
            "version": "2.2.3",
            "path": {
              "type": "fabric",
              "name": "CraftPresence-%mc%.jar"
            }
          }
        ],
        "1.20": [
          {
            "url": "https://mediafilez.forgecdn.net/files/4574/236/CraftPresence-2.0.7%2B1.20.jar",
            "version": "2.0.7",
            "path": {
              "type": "fabric",
              "name": "CraftPresence-%mc%.jar"
            }
          }
        ],
        "1.19.4": [
          {
            "url": "https://mediafilez.forgecdn.net/files/4439/762/CraftPresence-2.0.0-beta.3%2B1.19.4.jar",
            "version": "2.0.0",
            "path": {
              "type": "fabric",
              "name": "CraftPresence-%mc%.jar"
            }
          }
        ],
        "1.19.3": [
          {
            "url": "https://mediafilez.forgecdn.net/files/4147/121/CraftPresence-1.19.3-Release-1.9.6-universal.jar",
            "version": "1.9.6",
            "path": {
              "type": "fabric",
              "name": "CraftPresence-%mc%.jar"
            }
          }
        ],
        "1.19.2": [
          {
            "url": "https://mediafiles.forgecdn.net/files/3924/913/CraftPresence-Fabric-1.19.2-Release-1.8.9.jar",
            "version": "1.8.9",
            "path": {
              "type": "fabric",
              "name": "CraftPresence-%mc%.jar"
            }
          }
        ],
        "1.19.1": [
          {
            "url": "https://mediafiles.forgecdn.net/files/3912/154/CraftPresence-Fabric-1.19.1-Release-1.8.9.jar",
            "version": "1.8.9",
            "path": {
              "type": "fabric",
              "name": "CraftPresence-%mc%.jar"
            }
          }
        ],
        "1.19": [
          {
            "url": "https://media.forgecdn.net/files/3821/66/CraftPresence-Fabric-1.19-Release-1.8.8.jar",
            "version": "1.8.8",
            "path": {
              "type": "fabric",
              "name": "CraftPresence-%mc%.jar"
            }
          }
        ],
        "1.18.2": [
          {
            "url": "https://media.forgecdn.net/files/3667/807/CraftPresence-Fabric-1.18.2-Release-1.8.8.jar",
            "version": "1.8.8",
            "path": {
              "type": "fabric",
              "name": "CraftPresence-%mc%.jar"
            }
          }
        ],
        "1.18.1": [
          {
            "url": "https://media.forgecdn.net/files/3561/105/CraftPresence-Fabric-1.18.1-Release-1.8.8.jar",
            "version": "1.8.8",
            "path": {
              "type": "fabric",
              "name": "CraftPresence-%mc%.jar"
            }
          }
        ],
        "1.17.1": [
          {
            "url": "https://media.forgecdn.net/files/3382/931/CraftPresence-Fabric-1.17.1-Release-1.8.2.jar",
            "version": "1.8.2",
            "path": {
              "type": "fabric",
              "name": "CraftPresence-%mc%.jar"
            }
          }
        ],
        "1.17": [
          {
            "url": "https://media.forgecdn.net/files/3343/612/CraftPresence-Fabric-1.17-Release-1.8.2.jar",
            "version": "1.8.2",
            "path": {
              "type": "fabric",
              "name": "CraftPresence-%mc%.jar"
            }
          }
        ],
        "1.16.5": [
          {
            "url": "https://media.forgecdn.net/files/3343/606/CraftPresence-Fabric-1.16.5-Release-1.8.2.jar",
            "version": "1.8.2",
            "path": {
              "type": "fabric",
              "name": "CraftPresence-%mc%.jar"
            }
          }
        ],
        "1.16.4": [
          {
            "url": "https://media.forgecdn.net/files/3165/457/CraftPresence-Fabric-1.16.4-Release-1.7.6.jar",
            "version": "0.7.6",
            "path": {
              "type": "fabric",
              "name": "CraftPresence-%mc%.jar"
            }
          }
        ],
        "1.15.2": [
          {
            "url": "https://media.forgecdn.net/files/3343/605/CraftPresence-Fabric-1.15.2-Release-1.8.2.jar",
            "version": "1.8.2",
            "path": {
              "type": "fabric",
              "name": "CraftPresence-%mc%.jar"
            }
          }
        ],
        "1.14.4": [
          {
            "url": "https://media.forgecdn.net/files/3343/607/CraftPresence-Fabric-1.14.4-Release-1.8.2.jar",
            "version": "1.8.2",
            "path": {
              "type": "fabric",
              "name": "CraftPresence-%mc%.jar"
            }
          }
        ]
      },
      "depends": [
        "fabric-api"
      ],
      "version": "1",
      "link": "",
      "sha1": "0"
    },
    {
      "id": "SeedCracker",
      "name": "SeedCracker",
      "author": "KaptainWutax & 19MisterX98",
      "summary": "Find the seed of any server, supports 1.15.2 - 1.21",
      "beta": true,
      "description": [
        "Crack the seed of servers using different types of data.",
        "Source: https://github.com/19MisterX98/SeedcrackerX",
        "Usage: https://www.youtube.com/watch?v=tKeEyx7jIE4",
        "(Search \"SeedcrackerX 1.19.x\" on YouTube)"
      ],
      "message": [
        "SeedCracker may cause instability and crashes",
        "use at your own risk and do not report crashes caused by it to us"
      ],
      "downloads": {
        "1.21": [
          {
            "url": "https://github.com/19MisterX98/SeedcrackerX/releases/download/prerelease/seedcrackerX-2.15.0.jar",
            "version": "2.15.0",
            "path": {
              "type": "fabric",
              "name": "SeedcrackerX.jar"
            }
          }
        ],
        "1.20.2": [
          {
            "url": "https://github.com/19MisterX98/SeedcrackerX/releases/download/2.14.5/seedcrackerX-2.14.5.jar",
            "version": "2.14.5",
            "path": {
              "type": "fabric",
              "name": "SeedcrackerX.jar"
            }
          }
        ],
        "1.20(.1)?": [
          {
            "url": "https://github.com/19MisterX98/SeedcrackerX/releases/download/2.14.4/seedcrackerX-2.14.4.jar",
            "version": "2.14.4",
            "path": {
              "type": "fabric",
              "name": "SeedcrackerX.jar"
            }
          }
        ],
        "1.19.4": [
          {
            "url": "https://github.com/19MisterX98/SeedcrackerX/releases/download/2.14.2/seedcrackerX-2.14.2.jar",
            "version": "2.14.2",
            "path": {
              "type": "fabric",
              "name": "SeedcrackerX.jar"
            }
          }
        ],
        "1.19.3": [
          {
            "url": "https://github.com/19MisterX98/SeedcrackerX/releases/download/2.13.1/seedcrackerX-2.13.1.jar",
            "version": "2.13.1",
            "path": {
              "type": "fabric",
              "name": "SeedcrackerX.jar"
            }
          }
        ],
        "1.19(.[12])?": [
          {
            "url": "https://github.com/19MisterX98/SeedcrackerX/releases/download/2.13/seedcrackerX-2.13.jar",
            "version": "2.13",
            "path": {
              "type": "fabric",
              "name": "SeedcrackerX.jar"
            }
          }
        ],
        "1.18.2": [
          {
            "url": "https://github.com/19MisterX98/SeedcrackerX/releases/download/2.12/seedcrackerX-2.12.jar",
            "version": "2.12",
            "path": {
              "type": "fabric",
              "name": "SeedcrackerX.jar"
            }
          }
        ],
        "1.18(.1)?": [
          {
            "url": "https://github.com/19MisterX98/SeedcrackerX/releases/download/2.11.3/seedcrackerX-2.11.3.jar",
            "version": "2.11.3",
            "path": {
              "type": "fabric",
              "name": "SeedcrackerX.jar"
            }
          }
        ],
        "1.17.?1?": [
          {
            "url": "https://github.com/19MisterX98/SeedcrackerX/releases/download/2.8.1/seedcrackerX-0.2.8.jar",
            "version": "0.2.8",
            "path": {
              "type": "fabric",
              "name": "SeedcrackerX.jar"
            }
          }
        ],
        "1.16.(2|3|4|5)": [
          {
            "url": "https://github.com/19MisterX98/SeedcrackerX/releases/download/2.7/seedcrackerX-0.2.7.jar",
            "version": "0.2.7",
            "path": {
              "type": "fabric",
              "name": "SeedcrackerX.jar"
            }
          }
        ],
        "1.16.1": [
          {
            "url": "https://github.com/KaptainWutax/SeedCracker/releases/download/v0.2.1-beta/seedcracker-0.2.1-beta.jar",
            "version": "v0.2.1-beta",
            "path": {
              "type": "fabric",
              "name": "SeedCracker.jar"
            }
          }
        ],
        "1.15.2": [
          {
            "url": "https://github.com/KaptainWutax/SeedCracker/releases/download/v0.1.0-beta/seedcracker-0.1.0-beta.jar",
            "version": "v0.1.0-beta",
            "path": {
              "type": "fabric",
              "name": "SeedCracker.jar"
            }
          }
        ]
      },
      "version": "1",
      "depends": [
        "fabric-api"
      ],
      "link": "",
      "sha1": "0"
    },
    {
      "id": "fabric-api",
      "name": "Fabric Api",
      "author": "Fabric Team",
      "summary": "The Fabric API",
      "icon": "https://media.forgecdn.net/avatars/thumbnails/185/822/64/64/636829723898798601.png",
      "description": [
        "API commonly required by other Fabric mods."
      ],
      "website": "https://modrinth.com/mod/fabric-api",
      "downloads": {
        "1.21.4": [
          {
            "url": "https://cdn.modrinth.com/data/P7dR8mSH/versions/5tj7y3PJ/fabric-api-0.114.0%2B1.21.4.jar",
            "version": "0.114.0",
            "path": {
              "type": "fabric",
              "name": "fabric-api.jar"
            }
          }
        ],
        "1.21.3": [
          {
            "url": "https://cdn.modrinth.com/data/P7dR8mSH/versions/dhD4I4lJ/fabric-api-0.106.1%2B1.21.3.jar",
            "version": "0.106.1",
            "path": {
              "type": "fabric",
              "name": "fabric-api.jar"
            }
          }
        ],
        "1.21.1": [
          {
            "url": "https://cdn.modrinth.com/data/P7dR8mSH/versions/VAjB0MYF/fabric-api-0.102.0%2B1.21.1.jar",
            "version": "0.102.0",
            "path": {
              "type": "fabric",
              "name": "fabric-api.jar"
            }
          }
        ],
        "1.21": [
          {
            "url": "https://cdn.modrinth.com/data/P7dR8mSH/versions/1cXs6RWI/fabric-api-0.100.3%2B1.21.jar",
            "version": "0.100.3",
            "path": {
              "type": "fabric",
              "name": "fabric-api.jar"
            }
          }
        ],
        "1.20.6": [
          {
            "url": "https://cdn.modrinth.com/data/P7dR8mSH/versions/sswM8UzU/fabric-api-0.99.0%2B1.20.6.jar",
            "version": "0.99.0",
            "path": {
              "type": "fabric",
              "name": "fabric-api.jar"
            }
          }
        ],
        "1.20.4": [
          {
            "url": "https://cdn.modrinth.com/data/P7dR8mSH/versions/cXkV2nJO/fabric-api-0.95.0%2B1.20.4.jar",
            "version": "0.95.0",
            "path": {
              "type": "fabric",
              "name": "fabric-api.jar"
            },
            "sha1": "E072A9DD8FCCC9FFE61196F3379439788109D048"
          }
        ],
        "1.20.3": [
          {
            "url": "https://cdn.modrinth.com/data/P7dR8mSH/versions/Yolngp3s/fabric-api-0.91.1%2B1.20.3.jar",
            "version": "0.91.1",
            "path": {
              "type": "fabric",
              "name": "fabric-api.jar"
            }
          }
        ],
        "1.20.2": [
          {
            "url": "https://cdn-raw.modrinth.com/data/P7dR8mSH/versions/lRcC0FRh/fabric-api-0.89.1%2B1.20.2.jar",
            "version": "0.89.1",
            "path": {
              "type": "fabric",
              "name": "fabric-api.jar"
            }
          }
        ],
        "1.20.1": [
          {
            "url": "https://cdn-raw.modrinth.com/data/P7dR8mSH/versions/K1pOTt6K/fabric-api-0.83.1%2B1.20.1.jar",
            "version": "0.83.1",
            "path": {
              "type": "fabric",
              "name": "fabric-api.jar"
            },
            "sha1": "3616F70A677BD680C9FCCED41A2117A9F099C550"
          }
        ],
        "1.20": [
          {
            "url": "https://cdn-raw.modrinth.com/data/P7dR8mSH/versions/n2c5lxAo/fabric-api-0.83.0%2B1.20.jar",
            "version": "0.83.0",
            "path": {
              "type": "fabric",
              "name": "fabric-api.jar"
            }
          }
        ],
        "1.19.4": [
          {
            "url": "https://mediafilez.forgecdn.net/files/4438/778/fabric-api-0.76.0%2B1.19.4.jar",
            "version": "0.76.0",
            "path": {
              "type": "fabric",
              "name": "fabric-api.jar"
            }
          }
        ],
        "1.19.3": [
          {
            "url": "https://mediafilez.forgecdn.net/files/4126/340/fabric-api-0.68.1%2B1.19.3.jar",
            "version": "0.68.1",
            "path": {
              "type": "fabric",
              "name": "fabric-api.jar"
            }
          }
        ],
        "1.19.2": [
          {
            "url": "https://mediafiles.forgecdn.net/files/3936/24/fabric-api-0.60.0%2B1.19.2.jar",
            "version": "0.6.0",
            "path": {
              "type": "fabric",
              "name": "fabric-api.jar"
            }
          }
        ],
        "1.19.1": [
          {
            "url": "https://mediafiles.forgecdn.net/files/3902/660/fabric-api-0.58.5%2B1.19.1.jar",
            "version": "0.58.5",
            "path": {
              "type": "fabric",
              "name": "fabric-api.jar"
            }
          }
        ],
        "1.19": [
          {
            "url": "https://media.forgecdn.net/files/3821/174/fabric-api-0.55.2%2B1.19.jar",
            "version": "0.55.2",
            "path": {
              "type": "fabric",
              "name": "fabric-api.jar"
            }
          }
        ],
        "1.18.2": [
          {
            "url": "https://media.forgecdn.net/files/3660/981/fabric-api-0.47.8%2B1.18.2.jar",
            "version": "0.47.8",
            "path": {
              "type": "fabric",
              "name": "fabric-api.jar"
            }
          }
        ],
        "1.18.1": [
          {
            "url": "https://media.forgecdn.net/files/3634/318/fabric-api-0.46.4%2B1.18.jar",
            "version": "0.46.4",
            "path": {
              "type": "fabric",
              "name": "fabric-api.jar"
            }
          }
        ],
        "1.17.1": [
          {
            "url": "https://media.forgecdn.net/files/3377/591/fabric-api-0.36.1%2B1.17.jar",
            "version": "0.36.1",
            "path": {
              "type": "fabric",
              "name": "fabric-api.jar"
            }
          }
        ],
        "1.17": [
          {
            "url": "https://media.forgecdn.net/files/3358/619/fabric-api-0.36.0%2B1.17.jar",
            "version": "0.36.0",
            "path": {
              "type": "fabric",
              "name": "fabric-api.jar"
            }
          }
        ],
        "1.16.5": [
          {
            "url": "https://media.forgecdn.net/files/3324/592/fabric-api-0.34.6%2B1.16.jar",
            "version": "0.34.6",
            "path": {
              "type": "fabric",
              "name": "fabric-api.jar"
            }
          }
        ],
        "1.16.4": [
          {
            "url": "https://media.forgecdn.net/files/3159/126/fabric-api-0.29.3%2B1.16.jar",
            "version": "0.29.3",
            "path": {
              "type": "fabric",
              "name": "fabric-api.jar"
            }
          }
        ],
        "1.16.3": [
          {
            "url": "https://media.forgecdn.net/files/3097/415/fabric-api-0.25.0%2Bbuild.415-1.16.jar",
            "version": "0.25.0",
            "path": {
              "type": "fabric",
              "name": "fabric-api.jar"
            }
          }
        ],
        "1.16.2": [
          {
            "url": "https://media.forgecdn.net/files/3049/174/fabric-api-0.20.1%2Bbuild.401-1.16.jar",
            "version": "0.20.1",
            "path": {
              "type": "fabric",
              "name": "fabric-api.jar"
            }
          }
        ],
        "1.16.1": [
          {
            "url": "https://media.forgecdn.net/files/3049/57/fabric-api-0.18.0%2Bbuild.387-1.16.1.jar",
            "version": "0.18.0",
            "path": {
              "type": "fabric",
              "name": "fabric-api.jar"
            }
          }
        ],
        "1.15.2": [
          {
            "url": "https://media.forgecdn.net/files/3174/96/fabric-api-0.28.5%2B1.15.jar",
            "version": "0.28.5",
            "path": {
              "type": "fabric",
              "name": "fabric-api.jar"
            }
          }
        ],
        "1.14.4": [
          {
            "url": "https://media.forgecdn.net/files/3174/88/fabric-api-0.28.5%2B1.14.jar",
            "version": "0.28.5",
            "path": {
              "type": "fabric",
              "name": "fabric-api.jar"
            }
          }
        ]
      },
      "version": "1",
      "link": "",
      "sha1": "0"
    },
    {
      "id": "iris",
      "name": "Iris",
      "author": "IMS",
      "summary": "A modern shaders mod for Minecraft",
      "icon": "https://cdn.modrinth.com/data/YL57xq9U/dc558eece920db435f9823ce86de0c4cde89800b.png",
      "description": [
        "A modern shaders mod for Minecraft intended to be",
        "compatible with existing OptiFine shader packs."
      ],
      "message": [
        "At the moment, using Iris will disable the outline mode in",
        "EntityESP, StorageESP, and ItemESP due to it",
        "conflicting with Aristois own shaders.",
        "",
        "The BoundaryBoxFull and BoundaryBox modes will",
        "still work fine when using Iris."
      ],
      "website": "https://modrinth.com/mod/iris",
      "downloads": {
        "1.21.4": [
          {
            "url": "https://cdn.modrinth.com/data/YL57xq9U/versions/LZrmMq4i/iris-fabric-1.8.5%2Bmc1.21.4.jar",
            "version": "1.8.5",
            "path": {
              "type": "fabric",
              "name": "iris-%mc%.jar"
            }
          }
        ],
        "1.21.3": [
          {
            "url": "https://cdn.modrinth.com/data/YL57xq9U/versions/XExINvk9/iris-fabric-1.8.0-beta.6%2Bmc1.21.2.jar",
            "version": "1.8.0",
            "path": {
              "type": "fabric",
              "name": "iris-%mc%.jar"
            }
          }
        ],
        "1.21(.1)?": [
          {
            "url": "https://cdn.modrinth.com/data/YL57xq9U/versions/kuOV4Ece/iris-1.7.3%2Bmc1.21.jar",
            "version": "1.7.3",
            "path": {
              "type": "fabric",
              "name": "iris-%mc%.jar"
            }
          }
        ]
      },
      "version": "1",
      "conflicts": [
        "optifine"
      ],
      "depends": [
        "fabric-api",
        "sodium"
      ],
      "link": "",
      "sha1": "0"
    },
    {
      "id": "lithium",
      "name": "Lithium",
      "author": "JellySquid",
      "summary": "Performance improvement mod",
      "icon": "https://media.forgecdn.net/avatars/thumbnails/246/646/64/64/637158441743060329.png",
      "description": [
        "Improves the general performance",
        "of Minecraft"
      ],
      "downloads": {
        "1.18.1": [
          {
            "url": "https://media.forgecdn.net/files/3659/182/lithium-fabric-mc1.18.1-0.7.8.jar",
            "version": "0.7.8",
            "path": {
              "type": "fabric",
              "name": "lithium-%mc%.jar"
            }
          }
        ],
        "1.17.?1?": [
          {
            "url": "https://media.forgecdn.net/files/3380/166/lithium-fabric-mc1.17.1-0.7.3.jar",
            "version": "0.7.3",
            "path": {
              "type": "fabric",
              "name": "lithium-%mc%.jar"
            }
          }
        ],
        "1.16.(2|3|4|5)": [
          {
            "url": "https://media.forgecdn.net/files/3215/441/lithium-fabric-mc1.16.5-0.6.4.jar",
            "version": "0.6.4",
            "path": {
              "type": "fabric",
              "name": "lithium-%mc%.jar"
            }
          }
        ],
        "1.16.1": [
          {
            "url": "https://media.forgecdn.net/files/3000/628/lithium-fabric-mc1.16.1-0.5.1.jar",
            "version": "0.5.1",
            "path": {
              "type": "fabric",
              "name": "lithium-%mc%.jar"
            }
          }
        ]
      },
      "version": "1",
      "conflicts": [
        "optifine"
      ],
      "link": "",
      "sha1": "0"
    },
    {
      "id": "multiconnect",
      "name": "MultiConnect",
      "author": "EarthComputer",
      "beta": true,
      "conflicts": [
        "optifine"
      ],
      "summary": "Allows you to join any mc version using the latest version",
      "icon": "https://media.forgecdn.net/avatars/thumbnails/219/577/64/64/637016557350663676.png",
      "description": [
        "Allows you to join Minecraft 1.8 to 1.19.3 on the latest mc version",
        "MIT license, source at https://github.com/Earthcomputer/multiconnect",
        "Currently supported versions are: 1.15.2 to 1.19.3"
      ],
      "downloads": {
        "1.19.3": [
          {
            "url": "https://mediafilez.forgecdn.net/files/4162/536/multiconnect-1.6-beta.25.jar",
            "version": "1.6-beta.25",
            "path": {
              "type": "fabric",
              "name": "multiconnect.jar"
            }
          }
        ],
        "1.19.2": [
          {
            "url": "https://github.com/Earthcomputer/multiconnect/releases/download/v1.6-beta.22/multiconnect-1.6-beta.22.jar",
            "version": "1.6-beta.22",
            "path": {
              "type": "fabric",
              "name": "multiconnect.jar"
            },
            "sha1": "B33F0A69573A7CA55AB4BF60A2E018255EB20B56"
          }
        ],
        "1.19.1": [
          {
            "url": "https://mediafiles.forgecdn.net/files/3902/799/multiconnect-1.6-beta.21.jar",
            "version": "1.6-beta.21",
            "path": {
              "type": "fabric",
              "name": "multiconnect.jar"
            },
            "sha1": "6a4e3ed23c64f7a87af2add9270fe13c6aee73df"
          }
        ],
        "1.19": [
          {
            "url": "https://github.com/Earthcomputer/multiconnect/releases/download/v1.6-beta.12/multiconnect-1.6-beta.12.jar",
            "version": "1.6-beta.12",
            "path": {
              "type": "fabric",
              "name": "multiconnect.jar"
            },
            "sha1": "F0D48FC33DB18A4D953838183A97BF2C3D1EF9A7"
          }
        ],
        "1.18.1": [
          {
            "url": "https://github.com/Earthcomputer/multiconnect/releases/download/v1.5.10/multiconnect-1.5.10.jar",
            "version": "1.5.10",
            "path": {
              "type": "fabric",
              "name": "multiconnect.jar"
            },
            "sha1": "C1C35A8057B2D5D43814729769D84F71E9564019"
          }
        ],
        "1.17.1": [
          {
            "url": "https://github.com/Earthcomputer/multiconnect/releases/download/v1.4.8/multiconnect-1.4.8.jar",
            "version": "1.4.8",
            "path": {
              "type": "fabric",
              "name": "multiconnect.jar"
            }
          }
        ],
        "1.17": [
          {
            "url": "https://github.com/Earthcomputer/multiconnect/releases/download/v1.4.4/multiconnect-1.4.4.jar",
            "version": "1.4.4",
            "path": {
              "type": "fabric",
              "name": "multiconnect.jar"
            }
          }
        ],
        "1.16.5": [
          {
            "url": "https://github.com/Earthcomputer/multiconnect/releases/download/v1.3.36/multiconnect-1.3.36.jar",
            "version": "1.3.36",
            "path": {
              "type": "fabric",
              "name": "multiconnect.jar"
            }
          }
        ],
        "1.16.4": [
          {
            "url": "https://github.com/Earthcomputer/multiconnect/releases/download/v1.3.34/multiconnect-1.3.34.jar",
            "version": "1.3.34",
            "path": {
              "type": "fabric",
              "name": "multiconnect.jar"
            }
          }
        ],
        "1.16.3": [
          {
            "url": "https://github.com/Earthcomputer/multiconnect/releases/download/v1.3.32/multiconnect-1.3.32.jar",
            "version": "1.3.32",
            "path": {
              "type": "fabric",
              "name": "multiconnect.jar"
            }
          }
        ],
        "1.16.2": [
          {
            "url": "https://github.com/Earthcomputer/multiconnect/releases/download/v1.3.18/multiconnect-1.3.18.jar",
            "version": "1.3.18",
            "path": {
              "type": "fabric",
              "name": "multiconnect.jar"
            }
          }
        ],
        "1.16.1": [
          {
            "url": "https://github.com/Earthcomputer/multiconnect/releases/download/v1.3.8/multiconnect-1.3.8.jar",
            "version": "1.3.8",
            "path": {
              "type": "fabric",
              "name": "multiconnect.jar"
            }
          }
        ],
        "1.15.2": [
          {
            "url": "https://github.com/Earthcomputer/multiconnect/releases/download/v1.2.9/multiconnect-1.2.9.jar",
            "version": "1.2.9",
            "path": {
              "type": "fabric",
              "name": "multiconnect.jar"
            }
          }
        ]
      },
      "version": "1",
      "link": "",
      "sha1": "0"
    },
    {
      "id": "optifine",
      "name": "OptiFine",
      "author": "sp614x",
      "summary": "Installs OptiFine for Aristois. Supports 1.16.5 - 1.20.4",
      "icon": "https://media.forgecdn.net/avatars/204/621/636941511294490034.png",
      "description": [
        "OptiFine is a performance enhancing mod for Minecraft",
        "Highly experimental for 1.19.X and 1.20.X versions"
      ],
      "message": [
        "OptiFine is experimental on Fabric and",
        "may cause crashes outside our control.",
        "",
        "It may also conflict with the Aristois shaders",
        "or make entities disappear when using OptiFine shaders."
      ],
      "beta": true,
      "version": "1",
      "conflicts": [
        "sodium",
        "lithium",
        "phosphor",
        "multiconnect"
      ],
      "downloads": {
        "1.20.4": [
          {
            "url": "https://optifine.net/adloadx?f=OptiFine_1.20.4_HD_U_I7.jar",
            "redirect": {
              "url": "https://optifine.net/downloadx",
              "inst": [
                {
                  "type": "split",
                  "keyword": "downloadx",
                  "index": 1
                },
                {
                  "type": "split",
                  "keyword": "'",
                  "index": 0
                }
              ]
            },
            "path": {
              "type": "mods",
              "name": "optifine.jar"
            },
            "version": "HD_U_I7",
            "sha1": "F2475E8D5746477D1D2972CD5AAE62A5D9C04264"
          },
          {
            "url": "https://mediafilez.forgecdn.net/files/5025/647/optifabric-1.14.3.jar",
            "version": "1.14.3",
            "path": {
              "type": "fabric",
              "name": "optifabric.jar"
            },
            "sha1": "E0818735CC2272FF7704E7A6D28D38D154E65F37",
            "regenerate": false
          }
        ],
        "1.20.1": [
          {
            "url": "https://optifine.net/adloadx?f=OptiFine_1.20.1_HD_U_I6.jar",
            "redirect": {
              "url": "https://optifine.net/downloadx",
              "inst": [
                {
                  "type": "split",
                  "keyword": "downloadx",
                  "index": 1
                },
                {
                  "type": "split",
                  "keyword": "'",
                  "index": 0
                }
              ]
            },
            "path": {
              "type": "mods",
              "name": "optifine.jar"
            },
            "version": "HD_U_I5",
            "sha1": "227914AB1037762EAE44A2E66A568B87D7A02365"
          },
          {
            "url": "https://mediafilez.forgecdn.net/files/5025/647/optifabric-1.14.3.jar",
            "version": "1.14.3",
            "path": {
              "type": "fabric",
              "name": "optifabric.jar"
            },
            "sha1": "E0818735CC2272FF7704E7A6D28D38D154E65F37",
            "regenerate": false
          }
        ],
        "1.19.4": [
          {
            "url": "https://optifine.net/adloadx?f=OptiFine_1.19.4_HD_U_I3.jar",
            "redirect": {
              "url": "https://optifine.net/downloadx",
              "inst": [
                {
                  "type": "split",
                  "keyword": "downloadx",
                  "index": 1
                },
                {
                  "type": "split",
                  "keyword": "'",
                  "index": 0
                }
              ]
            },
            "path": {
              "type": "mods",
              "name": "optifine.jar"
            },
            "version": "HD_U_I3",
            "sha1": "050D787936CC239EA8DB0AA250D2ED72A44FA71D"
          },
          {
            "url": "https://mediafilez.forgecdn.net/files/5025/647/optifabric-1.14.3.jar",
            "version": "1.14.3",
            "path": {
              "type": "fabric",
              "name": "optifabric.jar"
            },
            "sha1": "E0818735CC2272FF7704E7A6D28D38D154E65F37",
            "regenerate": false
          }
        ],
        "1.19.3": [
          {
            "url": "https://optifine.net/adloadx?f=OptiFine_1.19.3_HD_U_I3.jar",
            "redirect": {
              "url": "https://optifine.net/downloadx",
              "inst": [
                {
                  "type": "split",
                  "keyword": "downloadx",
                  "index": 1
                },
                {
                  "type": "split",
                  "keyword": "'",
                  "index": 0
                }
              ]
            },
            "path": {
              "type": "mods",
              "name": "optifine.jar"
            },
            "version": "HD_U_I3",
            "sha1": "B24D8725A8D06E1C190D1D2B3BC51C899F74B36D"
          },
          {
            "url": "https://mediafilez.forgecdn.net/files/5025/647/optifabric-1.14.3.jar",
            "version": "1.14.3",
            "path": {
              "type": "fabric",
              "name": "optifabric.jar"
            },
            "sha1": "E0818735CC2272FF7704E7A6D28D38D154E65F37",
            "regenerate": false
          }
        ],
        "1.19.2": [
          {
            "url": "https://optifine.net/adloadx?f=OptiFine_1.19.2_HD_U_H9.jar",
            "redirect": {
              "url": "https://optifine.net/downloadx",
              "inst": [
                {
                  "type": "split",
                  "keyword": "downloadx",
                  "index": 1
                },
                {
                  "type": "split",
                  "keyword": "'",
                  "index": 0
                }
              ]
            },
            "path": {
              "type": "mods",
              "name": "optifine.jar"
            },
            "version": "HD_U_H9",
            "sha1": "7CC221A6DF6831B62C3B676B5F958E82A4487FD8"
          },
          {
            "url": "https://mediafilez.forgecdn.net/files/5025/647/optifabric-1.14.3.jar",
            "version": "1.14.3",
            "path": {
              "type": "fabric",
              "name": "optifabric.jar"
            },
            "sha1": "E0818735CC2272FF7704E7A6D28D38D154E65F37",
            "regenerate": false
          }
        ],
        "1.19": [
          {
            "url": "https://optifine.net/adloadx?f=OptiFine_1.19_HD_U_H8.jar",
            "redirect": {
              "url": "https://optifine.net/downloadx",
              "inst": [
                {
                  "type": "split",
                  "keyword": "downloadx",
                  "index": 1
                },
                {
                  "type": "split",
                  "keyword": "'",
                  "index": 0
                }
              ]
            },
            "path": {
              "type": "mods",
              "name": "optifine.jar"
            },
            "version": "HD_U_H8",
            "sha1": "64c8c35313d25a64a8a8677cb851a2c83556ddc8"
          },
          {
            "url": "https://mediafilez.forgecdn.net/files/5025/647/optifabric-1.14.3.jar",
            "version": "1.14.3",
            "path": {
              "type": "fabric",
              "name": "optifabric.jar"
            },
            "sha1": "E0818735CC2272FF7704E7A6D28D38D154E65F37",
            "regenerate": false
          }
        ],
        "1.18.2": [
          {
            "url": "https://optifine.net/adloadx?f=OptiFine_1.18.2_HD_U_H6.jar",
            "redirect": {
              "url": "https://optifine.net/downloadx",
              "inst": [
                {
                  "type": "split",
                  "keyword": "downloadx",
                  "index": 1
                },
                {
                  "type": "split",
                  "keyword": "'",
                  "index": 0
                }
              ]
            },
            "path": {
              "type": "mods",
              "name": "optifine.jar"
            },
            "version": "HD_U_H6",
            "sha1": "445A8CB8A1D565D8A1FABC0BA984C5936EDBF561"
          },
          {
            "url": "https://mediafilez.forgecdn.net/files/5025/647/optifabric-1.14.3.jar",
            "version": "1.14.3",
            "path": {
              "type": "fabric",
              "name": "optifabric.jar"
            },
            "sha1": "E0818735CC2272FF7704E7A6D28D38D154E65F37",
            "regenerate": false
          }
        ],
        "1.18.1": [
          {
            "url": "https://optifine.net/adloadx?f=OptiFine_1.18.1_HD_U_H4.jar",
            "redirect": {
              "url": "https://optifine.net/downloadx",
              "inst": [
                {
                  "type": "split",
                  "keyword": "downloadx",
                  "index": 1
                },
                {
                  "type": "split",
                  "keyword": "'",
                  "index": 0
                }
              ]
            },
            "path": {
              "type": "mods",
              "name": "optifine.jar"
            },
            "version": "HD_U_H4",
            "sha1": "326C160481CC849BCCB821939992C101A8FE163B"
          },
          {
            "url": "https://mediafilez.forgecdn.net/files/5025/647/optifabric-1.14.3.jar",
            "version": "1.14.3",
            "path": {
              "type": "fabric",
              "name": "optifabric.jar"
            },
            "sha1": "E0818735CC2272FF7704E7A6D28D38D154E65F37",
            "regenerate": false
          }
        ],
        "1.18": [
          {
            "url": "https://optifine.net/adloadx?f=OptiFine_1.18_HD_U_H3.jar",
            "redirect": {
              "url": "https://optifine.net/downloadx",
              "inst": [
                {
                  "type": "split",
                  "keyword": "downloadx",
                  "index": 1
                },
                {
                  "type": "split",
                  "keyword": "'",
                  "index": 0
                }
              ]
            },
            "path": {
              "type": "mods",
              "name": "optifine.jar"
            },
            "version": "HD_U_H3",
            "sha1": "52629BC5319EC203EDD42DE1776CB8D67A0E6B1B"
          },
          {
            "url": "https://mediafilez.forgecdn.net/files/5025/647/optifabric-1.14.3.jar",
            "version": "1.14.3",
            "path": {
              "type": "fabric",
              "name": "optifabric.jar"
            },
            "sha1": "E0818735CC2272FF7704E7A6D28D38D154E65F37",
            "regenerate": false
          }
        ],
        "1.17.1": [
          {
            "url": "https://optifine.net/adloadx?f=OptiFine_1.17.1_HD_U_H1.jar",
            "redirect": {
              "url": "https://optifine.net/downloadx",
              "inst": [
                {
                  "type": "split",
                  "keyword": "downloadx",
                  "index": 1
                },
                {
                  "type": "split",
                  "keyword": "'",
                  "index": 0
                }
              ]
            },
            "path": {
              "type": "mods",
              "name": "optifine.jar"
            },
            "version": "HD_U_H1",
            "sha1": "CC64084E73D6423BAF7CCBDD9F3760DD56F2FCE5"
          },
          {
            "url": "https://mediafilez.forgecdn.net/files/5025/647/optifabric-1.14.3.jar",
            "version": "1.14.3",
            "path": {
              "type": "fabric",
              "name": "optifabric.jar"
            },
            "sha1": "E0818735CC2272FF7704E7A6D28D38D154E65F37",
            "regenerate": false
          }
        ],
        "1.16.5": [
          {
            "url": "https://optifine.net/adloadx?f=OptiFine_1.16.5_HD_U_G8.jar",
            "redirect": {
              "url": "https://optifine.net/downloadx",
              "inst": [
                {
                  "type": "split",
                  "keyword": "downloadx",
                  "index": 1
                },
                {
                  "type": "split",
                  "keyword": "'",
                  "index": 0
                }
              ]
            },
            "path": {
              "type": "mods",
              "name": "optifine.jar"
            },
            "version": "G8",
            "sha1": "137363842C5BFDEBB72356A4079FAEEF3157EB3C"
          },
          {
            "url": "https://mediafilez.forgecdn.net/files/5025/647/optifabric-1.14.3.jar",
            "version": "1.14.3",
            "path": {
              "type": "fabric",
              "name": "optifabric.jar"
            },
            "sha1": "E0818735CC2272FF7704E7A6D28D38D154E65F37",
            "regenerate": false
          }
        ],
        "1.16.3": [
          {
            "url": "https://optifine.net/adloadx?f=OptiFine_1.16.3_HD_U_G3.jar",
            "redirect": {
              "url": "https://optifine.net/downloadx",
              "inst": [
                {
                  "type": "split",
                  "keyword": "downloadx",
                  "index": 1
                },
                {
                  "type": "split",
                  "keyword": "'",
                  "index": 0
                }
              ]
            },
            "path": {
              "type": "mods",
              "name": "optifine.jar"
            },
            "version": "G3",
            "sha1": "DC83D55F74722E1E6F503817E00E5BA2E6CB4ABB"
          },
          {
            "url": "https://mediafilez.forgecdn.net/files/5025/647/optifabric-1.14.3.jar",
            "version": "1.14.3",
            "path": {
              "type": "fabric",
              "name": "optifabric.jar"
            },
            "sha1": "E0818735CC2272FF7704E7A6D28D38D154E65F37",
            "regenerate": false
          }
        ],
        "1.16.2": [
          {
            "url": "https://optifine.net/adloadx?f=OptiFine_1.16.2_HD_U_G3.jar",
            "redirect": {
              "url": "https://optifine.net/downloadx",
              "inst": [
                {
                  "type": "split",
                  "keyword": "downloadx",
                  "index": 1
                },
                {
                  "type": "split",
                  "keyword": "'",
                  "index": 0
                }
              ]
            },
            "path": {
              "type": "mods",
              "name": "optifine.jar"
            },
            "version": "G3",
            "sha1": "DDE4274C696063496323731AD7B58E0F6D7265AF"
          },
          {
            "url": "https://mediafilez.forgecdn.net/files/5025/647/optifabric-1.14.3.jar",
            "version": "1.14.3",
            "path": {
              "type": "fabric",
              "name": "optifabric.jar"
            },
            "sha1": "E0818735CC2272FF7704E7A6D28D38D154E65F37",
            "regenerate": false
          }
        ],
        "1.16.1": [
          {
            "url": "https://optifine.net/adloadx?f=OptiFine_1.16.1_HD_U_G2.jar",
            "redirect": {
              "url": "https://optifine.net/downloadx",
              "inst": [
                {
                  "type": "split",
                  "keyword": "downloadx",
                  "index": 1
                },
                {
                  "type": "split",
                  "keyword": "'",
                  "index": 0
                }
              ]
            },
            "path": {
              "type": "mods",
              "name": "optifine.jar"
            },
            "version": "G2",
            "sha1": "87533B8AC0DFEB11241041F197F8F95C0FFA8C08"
          },
          {
            "url": "https://mediafilez.forgecdn.net/files/5025/647/optifabric-1.14.3.jar",
            "version": "1.14.3",
            "path": {
              "type": "fabric",
              "name": "optifabric.jar"
            },
            "sha1": "E0818735CC2272FF7704E7A6D28D38D154E65F37",
            "regenerate": false
          }
        ]
      },
      "link": "",
      "sha1": "0"
    },
    {
      "id": "phosphor",
      "name": "Phosphor",
      "author": "JellySquid",
      "summary": "Lightning improvement mod",
      "icon": "https://media.forgecdn.net/avatars/thumbnails/284/775/64/64/637298471783289760.png",
      "description": [
        "Improves the lightning in mc",
        "and the performance of it"
      ],
      "downloads": {
        "1.19.(1|2)?": [
          {
            "url": "https://mediafiles.forgecdn.net/files/3832/74/phosphor-fabric-mc1.19.x-0.8.1.jar",
            "version": "0.8.1",
            "path": {
              "type": "fabric",
              "name": "phosphor-%mc%.jar"
            }
          }
        ],
        "1.18.(1|2)": [
          {
            "url": "https://media.forgecdn.net/files/3573/395/phosphor-fabric-mc1.18.x-0.8.1.jar",
            "version": "0.8.1",
            "path": {
              "type": "fabric",
              "name": "phosphor-%mc%.jar"
            }
          }
        ],
        "1.17.(1|2)": [
          {
            "url": "https://media.forgecdn.net/files/3537/802/phosphor-fabric-mc1.17.x-0.8.0.jar",
            "version": "0.8.0",
            "path": {
              "type": "fabric",
              "name": "phosphor-%mc%.jar"
            }
          }
        ],
        "1.16.(2|3|4|5)": [
          {
            "url": "https://media.forgecdn.net/files/3294/303/phosphor-fabric-mc1.16.3-0.7.2%2Bbuild.12.jar",
            "version": "0.7.2",
            "path": {
              "type": "fabric",
              "name": "phosphor-%mc%.jar"
            }
          }
        ],
        "1.16.1": [
          {
            "url": "https://media.forgecdn.net/files/2987/621/phosphor-fabric-mc1.16.1-0.6.0%2Bbuild.7.jar",
            "version": "0.6.0",
            "path": {
              "type": "fabric",
              "name": "phosphor-%mc%.jar"
            }
          }
        ]
      },
      "version": "1",
      "conflicts": [
        "optifine"
      ],
      "link": "",
      "sha1": "0"
    },
    {
      "id": "sodium",
      "name": "Sodium",
      "author": "JellySquid",
      "summary": "Performance boosting mod",
      "icon": "https://media.forgecdn.net/avatars/thumbnails/284/773/64/64/637298471098686391.png",
      "description": [
        "A performance mod similar to OptiFine.",
        "Aims to make the game run smoother and improve gameplay."
      ],
      "message": [
        "Sodium may not fully work with Aristois shaders",
        "and make mods such as EntityESP stop working correctly.",
        "",
        "It may also make entities disappear sometimes."
      ],
      "website": "https://modrinth.com/mod/sodium",
      "downloads": {
        "1.21.4": [
          {
            "url": "https://cdn.modrinth.com/data/AANobbMI/versions/tu8qILqH/sodium-fabric-0.6.6%2Bmc1.21.4.jar",
            "version": "0.6.6",
            "path": {
              "type": "fabric",
              "name": "sodium-%mc%.jar"
            }
          }
        ],
        "1.21.3": [
          {
            "url": "https://cdn.modrinth.com/data/AANobbMI/versions/YWD36TtF/sodium-fabric-0.6.0-beta.3%2Bmc1.21.2.jar",
            "version": "0.6.0",
            "path": {
              "type": "fabric",
              "name": "sodium-%mc%.jar"
            }
          }
        ],
        "1.21.1": [
          {
            "url": "https://cdn.modrinth.com/data/AANobbMI/versions/RncWhTxD/sodium-fabric-0.5.11%2Bmc1.21.jar",
            "version": "0.5.11",
            "path": {
              "type": "fabric",
              "name": "sodium-%mc%.jar"
            }
          }
        ],
        "1.21": [
          {
            "url": "https://cdn.modrinth.com/data/AANobbMI/versions/dNHeFokL/sodium-fabric-0.5.9%2Bmc1.21.jar",
            "version": "0.5.9",
            "path": {
              "type": "fabric",
              "name": "sodium-%mc%.jar"
            }
          }
        ],
        "1.20.6": [
          {
            "url": "https://cdn.modrinth.com/data/AANobbMI/versions/IZskON6d/sodium-fabric-0.5.8%2Bmc1.20.6.jar",
            "version": "0.5.8",
            "path": {
              "type": "fabric",
              "name": "sodium-%mc%.jar"
            }
          }
        ],
        "1.20.4": [
          {
            "url": "https://github.com/CaffeineMC/sodium-fabric/releases/download/mc1.20.3-0.5.5/sodium-fabric-mc1.20.3-0.5.5.jar",
            "version": "0.5.5",
            "path": {
              "type": "fabric",
              "name": "sodium-%mc%.jar"
            }
          }
        ],
        "1.20.2": [
          {
            "url": "https://github.com/CaffeineMC/sodium-fabric/releases/download/mc1.20.2-0.5.3/sodium-fabric-mc1.20.2-0.5.3.jar",
            "version": "0.5.3",
            "path": {
              "type": "fabric",
              "name": "sodium-%mc%.jar"
            },
            "sha1": "37D1FB5BE973BEBA13B88AE6A6F8158DC80A12AD"
          }
        ],
        "1.20.1": [
          {
            "url": "https://github.com/CaffeineMC/sodium-fabric/releases/download/mc1.20.1-0.5.1/sodium-fabric-mc1.20.1-0.5.1.jar",
            "version": "0.5.1",
            "path": {
              "type": "fabric",
              "name": "sodium-%mc%.jar"
            },
            "sha1": "64908970887E85B6AA9FE4EAA690DDCB84C3369C"
          }
        ],
        "1.20": [
          {
            "url": "https://github.com/CaffeineMC/sodium-fabric/releases/download/mc1.20-0.4.10/sodium-fabric-mc1.20-0.4.10+build.27.jar",
            "version": "0.4.10",
            "path": {
              "type": "fabric",
              "name": "sodium-%mc%.jar"
            }
          }
        ],
        "1.19.4": [
          {
            "url": "https://mediafilez.forgecdn.net/files/4437/119/sodium-fabric-mc1.19.4-0.4.10%2Bbuild.24.jar",
            "version": "0.4.10",
            "path": {
              "type": "fabric",
              "name": "sodium-%mc%.jar"
            }
          }
        ],
        "1.19.3": [
          {
            "url": "https://mediafilez.forgecdn.net/files/4291/859/sodium-fabric-mc1.19.3-0.4.8%2Bbuild.22.jar",
            "version": "0.4.8",
            "path": {
              "type": "fabric",
              "name": "sodium-%mc%.jar"
            }
          }
        ],
        "1.19.2": [
          {
            "url": "https://mediafilez.forgecdn.net/files/3957/319/sodium-fabric-mc1.19.2-0.4.4%2Bbuild.18.jar",
            "version": "0.4.4",
            "path": {
              "type": "fabric",
              "name": "sodium-%mc%.jar"
            }
          }
        ],
        "1.19(.[1])?": [
          {
            "url": "https://github.com/CaffeineMC/sodium-fabric/releases/download/mc1.19-0.4.2/sodium-fabric-mc1.19-0.4.2+build.16.jar",
            "version": "0.4.2",
            "path": {
              "type": "fabric",
              "name": "sodium-%mc%.jar"
            }
          }
        ],
        "1.18.2": [
          {
            "url": "https://github.com/CaffeineMC/sodium-fabric/releases/download/mc1.18.2-0.4.1/sodium-fabric-mc1.18.2-0.4.1+build.15.jar",
            "version": "0.4.1",
            "path": {
              "type": "fabric",
              "name": "sodium-%mc%.jar"
            }
          }
        ],
        "1.18(.1)?": [
          {
            "url": "https://github.com/CaffeineMC/sodium-fabric/releases/download/mc1.18-0.4.0-alpha5/sodium-fabric-mc1.18-0.4.0-alpha5+build.9.jar",
            "version": "0.4.0",
            "path": {
              "type": "fabric",
              "name": "sodium-%mc%.jar"
            }
          }
        ],
        "1.17.1": [
          {
            "url": "https://media.forgecdn.net/files/3535/40/sodium-fabric-mc1.17.1-0.3.3%2Bbuild.8.jar",
            "version": "0.3.3",
            "path": {
              "type": "fabric",
              "name": "sodium-%mc%.jar"
            }
          }
        ],
        "1.16.(2|3|4|5)": [
          {
            "url": "https://media.forgecdn.net/files/3067/101/sodium-fabric-mc1.16.3-0.1.0.jar",
            "version": "0.1.0",
            "path": {
              "type": "fabric",
              "name": "sodium-%mc%.jar"
            }
          }
        ],
        "1.16.1": [
          {
            "url": "https://media.forgecdn.net/files/3003/93/sodium-fabric-mc1.16.1-0.1.0.jar",
            "version": "0.1.0",
            "path": {
              "type": "fabric",
              "name": "sodium-%mc%.jar"
            }
          }
        ]
      },
      "version": "1",
      "conflicts": [
        "optifine"
      ],
      "depends": [
        "fabric-api"
      ],
      "link": "",
      "sha1": "0"
    },
    {
      "id": "viafabricplus",
      "name": "ViaFabricPlus",
      "author": "FlorianMichael",
      "summary": "Fabric mod to connect to every Minecraft server version",
      "icon": "https://cdn.modrinth.com/data/rIC2XJV4/29cdc33db3d4fde43b0c33bbcdbcd814a79958aa.png",
      "description": [
        "Fabric mod to connect to every minecraft server version",
        "(Release, Beta, Alpha, Classic, Snapshots, Bedrock) with QoL fixes to the gameplay."
      ],
      "message": [
        "ViaFabricPlus may cause certain mods to not work when",
        "playing on different Minecraft versions than the installed version."
      ],
      "website": "https://modrinth.com/mod/viafabricplus",
      "downloads": {
        "1.21.4": [
          {
            "url": "https://cdn.modrinth.com/data/rIC2XJV4/versions/LsvDfaN3/ViaFabricPlus-3.6.1.jar",
            "version": "3.6.1",
            "path": {
              "type": "fabric",
              "name": "viafabricplus.jar"
            }
          }
        ],
        "1.21.1": [
          {
            "url": "https://cdn.modrinth.com/data/rIC2XJV4/versions/pGX8JE4z/ViaFabricPlus-3.4.4.jar",
            "version": "3.4.4",
            "path": {
              "type": "fabric",
              "name": "viafabricplus.jar"
            }
          }
        ],
        "1.21": [
          {
            "url": "https://cdn.modrinth.com/data/rIC2XJV4/versions/l0HWcsJG/ViaFabricPlus-3.4.1.jar",
            "version": "3.4.1",
            "path": {
              "type": "fabric",
              "name": "viafabricplus.jar"
            }
          }
        ]
      },
      "version": "1",
      "depends": [
        "fabric-api"
      ],
      "link": "",
      "sha1": "0"
    }
  ]
}